Excludes exposures with SDSS in the tite.

     start_date      |  dtpropid  | processed | unprocessed 
---------------------+------------+-----------+-------------
 2013-08-31 00:00:00 | 2012B-0001 |       128 |          29
 2013-09-01 00:00:00 | 2012B-0001 |        74 |         163
 2013-09-02 00:00:00 | 2012B-0001 |       166 |          56
 2013-09-03 00:00:00 | 2012B-0001 |       124 |         150
 2013-09-04 00:00:00 | 2012B-0001 |        50 |          40
 2013-09-05 00:00:00 | 2012B-0001 |        77 |          22
 2013-09-07 00:00:00 | 2012B-0001 |       195 |          42
 2013-09-08 00:00:00 | 2012B-0001 |        85 |         211
 2013-09-09 00:00:00 | 2012B-0001 |       202 |          88
 2013-09-10 00:00:00 | 2012B-0001 |       145 |          97
 2013-09-11 00:00:00 | 2012B-0001 |       188 |          89
 2013-09-12 00:00:00 | 2012B-0001 |       264 |          12
 2013-09-13 00:00:00 | 2012B-0001 |        15 |          67
 2013-09-14 00:00:00 | 2012B-0001 |        41 |         339
 2013-09-15 00:00:00 | 2012B-0001 |        75 |         274
 2013-09-16 00:00:00 | 2012B-0001 |        48 |         297
 2013-09-21 00:00:00 | 2012B-0001 |       102 |         308
 2013-09-22 00:00:00 | 2012B-0001 |       146 |          50
 2013-09-23 00:00:00 | 2012B-0001 |       164 |          76
 2013-09-27 00:00:00 | 2012B-0001 |       111 |          80
 2013-09-28 00:00:00 | 2012B-0001 |       193 |          55
 2013-09-29 00:00:00 | 2012B-0001 |       160 |         103
 2013-10-01 00:00:00 | 2012B-0001 |        46 |         125
 2013-10-02 00:00:00 | 2012B-0001 |        27 |         167
 2013-10-03 00:00:00 | 2012B-0001 |        76 |         187
 2013-10-09 00:00:00 | 2012B-0001 |       120 |          29
 2013-10-10 00:00:00 | 2012B-0001 |       135 |          98
 2013-10-11 00:00:00 | 2012B-0001 |       157 |         106
 2013-10-12 00:00:00 | 2012B-0001 |        83 |         181
 2013-10-13 00:00:00 | 2012B-0001 |       152 |          30
 2013-10-14 00:00:00 | 2012B-0001 |       164 |          97
 2013-10-23 00:00:00 | 2012B-0001 |         0 |          20
 2013-10-24 00:00:00 | 2012B-0001 |        14 |          45
 2013-10-25 00:00:00 | 2012B-0001 |        63 |         111
 2013-10-26 00:00:00 | 2012B-0001 |       122 |          93
 2013-10-27 00:00:00 | 2012B-0001 |       141 |         130
 2013-10-28 00:00:00 | 2012B-0001 |        48 |         181
 2013-10-29 00:00:00 | 2012B-0001 |        26 |          82
 2013-10-30 00:00:00 | 2012B-0001 |         0 |         136
 2013-11-05 00:00:00 | 2012B-0001 |       112 |          19
 2013-11-06 00:00:00 | 2012B-0001 |       204 |          26
 2013-11-07 00:00:00 | 2012B-0001 |       126 |         113
 2013-11-08 00:00:00 | 2012B-0001 |       221 |          58
 2013-11-09 00:00:00 | 2012B-0001 |         0 |          44
 2013-11-10 00:00:00 | 2012B-0001 |       121 |         108
 2013-11-11 00:00:00 | 2012B-0001 |       117 |          15
 2013-11-12 00:00:00 | 2012B-0001 |       155 |          56
 2013-11-13 00:00:00 | 2012B-0001 |       218 |           4
 2013-11-14 00:00:00 | 2012B-0001 |       169 |          26
 2013-11-17 00:00:00 | 2012B-0001 |       141 |          61
 2013-11-18 00:00:00 | 2012B-0001 |       104 |          55
 2013-11-19 00:00:00 | 2012B-0001 |       103 |          90
 2013-11-20 00:00:00 | 2012B-0001 |       230 |           7
 2013-11-21 00:00:00 | 2012B-0001 |         5 |          95
 2013-11-22 00:00:00 | 2012B-0001 |        69 |         155
 2013-11-28 00:00:00 | 2012B-0001 |        57 |          43
 2013-11-30 00:00:00 | 2012B-0001 |       120 |          46
 2013-12-01 00:00:00 | 2012B-0001 |       164 |          25
 2013-12-02 00:00:00 | 2012B-0001 |       118 |          56
 2013-12-03 00:00:00 | 2012B-0001 |        54 |         131
 2013-12-04 00:00:00 | 2012B-0001 |        78 |         121
 2013-12-05 00:00:00 | 2012B-0001 |       201 |          13
 2013-12-06 00:00:00 | 2012B-0001 |       218 |           6
 2013-12-07 00:00:00 | 2012B-0001 |         0 |          23
 2013-12-08 00:00:00 | 2012B-0001 |       129 |          34
 2013-12-09 00:00:00 | 2012B-0001 |       156 |           7
 2013-12-10 00:00:00 | 2012B-0001 |       161 |          24
 2013-12-11 00:00:00 | 2012B-0001 |       221 |          25
 2013-12-12 00:00:00 | 2012B-0001 |       200 |           3
 2013-12-13 00:00:00 | 2012B-0001 |       150 |          64
 2013-12-14 00:00:00 | 2012B-0001 |        81 |         197
 2013-12-15 00:00:00 | 2012B-0001 |        24 |         214
 2013-12-18 00:00:00 | 2012B-0001 |       195 |          23
 2013-12-19 00:00:00 | 2012B-0001 |       112 |          91
 2013-12-20 00:00:00 | 2012B-0001 |       144 |          73
 2013-12-21 00:00:00 | 2012B-0001 |       183 |          30
 2013-12-22 00:00:00 | 2012B-0001 |       147 |          51
 2013-12-23 00:00:00 | 2012B-0001 |       207 |          21
 2013-12-26 00:00:00 | 2012B-0001 |        91 |          75
 2013-12-27 00:00:00 | 2012B-0001 |       147 |          43
 2013-12-28 00:00:00 | 2012B-0001 |       200 |          13
 2013-12-29 00:00:00 | 2012B-0001 |       193 |          14
 2013-12-30 00:00:00 | 2012B-0001 |       189 |          12
 2013-12-31 00:00:00 | 2012B-0001 |       200 |          11
 2014-01-01 00:00:00 | 2012B-0001 |       201 |          18
 2014-01-02 00:00:00 | 2012B-0001 |        82 |          46
 2014-01-03 00:00:00 | 2012B-0001 |       129 |          26
 2014-01-04 00:00:00 | 2012B-0001 |        97 |         101
 2014-01-09 00:00:00 | 2012B-0001 |        46 |          11
 2014-01-10 00:00:00 | 2012B-0001 |        30 |          20
 2014-01-11 00:00:00 | 2012B-0001 |        73 |          27
 2014-01-12 00:00:00 | 2012B-0001 |        59 |          58
 2014-01-13 00:00:00 | 2012B-0001 |        80 |          51
 2014-01-17 00:00:00 | 2012B-0001 |       113 |          48
 2014-01-18 00:00:00 | 2012B-0001 |        97 |         142
 2014-01-19 00:00:00 | 2012B-0001 |        77 |           6
 2014-01-20 00:00:00 | 2012B-0001 |       110 |          12
 2014-01-21 00:00:00 | 2012B-0001 |       103 |          12
 2014-01-22 00:00:00 | 2012B-0001 |       112 |           5
 2014-01-23 00:00:00 | 2012B-0001 |        77 |          30
 2014-01-24 00:00:00 | 2012B-0001 |        54 |          14
 2014-01-25 00:00:00 | 2012B-0001 |        70 |          15
 2014-01-26 00:00:00 | 2012B-0001 |        34 |          63
 2014-01-27 00:00:00 | 2012B-0001 |        83 |          13
 2014-01-28 00:00:00 | 2012B-0001 |        58 |           6
 2014-01-29 00:00:00 | 2012B-0001 |        84 |          16
 2014-01-30 00:00:00 | 2012B-0001 |        70 |          13
 2014-02-01 00:00:00 | 2012B-0001 |        81 |           5
 2014-02-02 00:00:00 | 2012B-0001 |        85 |           3
 2014-02-03 00:00:00 | 2012B-0001 |        90 |           8
 2014-02-04 00:00:00 | 2012B-0001 |       108 |          12
 2014-02-05 00:00:00 | 2012B-0001 |       113 |           3
 2014-02-06 00:00:00 | 2012B-0001 |        94 |           7
 2014-02-07 00:00:00 | 2012B-0001 |       104 |           2
 2014-02-08 00:00:00 | 2012B-0001 |        57 |          46
 2014-02-09 00:00:00 | 2012B-0001 |        53 |          86
(116 rows)

