COD 807
CON L. Allen, NOAO
CON 950 N. Cherry Ave., P.O. Box 26732, Tucson, AZ 85726
CON P.I. 2013B-0536
CON [lallen@noao.edu]
MEA F. Valdes
TEL 4.0-m CTIO reflector + DECam
NET 2MASS,USNO-B1
BND r
COM The DECam NEO Survey
COM Single Night Tracklets
ACK 2013B-0536: CP MODS Detections
AC2 valdes@noao.edu
     AcpTmP * C2014 02 04.03964 02 21 07.12 -11 32 08.8          24.7 r      807
     AcpTmP   C2014 02 04.04034 02 21 07.20 -11 32 08.2          24.7 r      807
     AcpTmP   C2014 02 04.04103 02 21 07.28 -11 32 07.8          24.7 r      807
     AcpTmQ * C2014 02 04.03895 02 22 15.50 -12 02 25.2          23.8 r      807
     AcpTmQ   C2014 02 04.03964 02 22 15.54 -12 02 24.4          23.8 r      807
     AcpTmQ   C2014 02 04.04034 02 22 15.58 -12 02 23.7          23.8 r      807
     AcpTmQ   C2014 02 04.04103 02 22 15.62 -12 02 23.2          23.8 r      807
     AcpTmQ   C2014 02 04.04173 02 22 15.66 -12 02 22.6          23.8 r      807
     AcpTmR * C2014 02 04.03895 02 25 14.84 -11 48 07.6          22.6 r      807
     AcpTmR   C2014 02 04.03964 02 25 14.92 -11 48 06.7          22.6 r      807
     AcpTmR   C2014 02 04.04034 02 25 15.00 -11 48 05.8          22.6 r      807
     AcpTmR   C2014 02 04.04103 02 25 15.08 -11 48 05.0          22.6 r      807
     AcpTmR   C2014 02 04.04173 02 25 15.17 -11 48 04.2          22.6 r      807
     AcpTmS * C2014 02 04.03895 02 21 43.99 -12 08 15.5          23.7 r      807
     AcpTmS   C2014 02 04.03964 02 21 43.87 -12 08 15.7          23.7 r      807
     AcpTmS   C2014 02 04.04034 02 21 43.72 -12 08 16.0          23.7 r      807
     AcpTmS   C2014 02 04.04103 02 21 43.59 -12 08 16.2          23.7 r      807
     AcpTmS   C2014 02 04.04173 02 21 43.45 -12 08 16.4          23.7 r      807
     AcpTmT * C2014 02 04.03895 02 26 56.53 -11 52 02.9          23.3 r      807
     AcpTmT   C2014 02 04.03964 02 26 56.62 -11 52 02.0          23.3 r      807
     AcpTmT   C2014 02 04.04034 02 26 56.71 -11 52 01.3          23.3 r      807
     AcpTmT   C2014 02 04.04103 02 26 56.80 -11 52 00.6          23.3 r      807
     AcpTmT   C2014 02 04.04173 02 26 56.89 -11 51 59.8          23.3 r      807
     AcpTmU * C2014 02 04.03964 02 26 18.75 -12 23 18.4          24.3 r      807
     AcpTmU   C2014 02 04.04034 02 26 18.80 -12 23 18.0          24.3 r      807
     AcpTmU   C2014 02 04.04103 02 26 18.85 -12 23 17.4          24.3 r      807
     AcpTmU   C2014 02 04.04173 02 26 18.91 -12 23 16.6          24.3 r      807
     AcpTmV * C2014 02 04.03895 02 27 27.87 -12 14 06.2          24.1 r      807
     AcpTmV   C2014 02 04.03964 02 27 27.90 -12 14 05.6          24.1 r      807
     AcpTmV   C2014 02 04.04034 02 27 27.92 -12 14 05.3          24.1 r      807
     AcpTmV   C2014 02 04.04103 02 27 27.95 -12 14 04.6          24.1 r      807
     AcpTmV   C2014 02 04.04173 02 27 27.98 -12 14 04.0          24.1 r      807
     AcpTmW * C2014 02 04.03895 02 27 04.70 -12 13 20.1          23.7 r      807
     AcpTmW   C2014 02 04.03964 02 27 04.74 -12 13 16.2          23.7 r      807
     AcpTmW   C2014 02 04.04034 02 27 04.78 -12 13 12.2          23.7 r      807
     AcpTmW   C2014 02 04.04103 02 27 04.82 -12 13 08.2          23.7 r      807
     AcpTmW   C2014 02 04.04173 02 27 04.86 -12 13 04.3          23.7 r      807
